<?xml version="1.0" encoding="UTF-8" ?>
<testsuite tests="1" failures="0" name="AmazonPay.AmazonPaySkill.AppTest" time="0.02" errors="0" skipped="0">
  <properties>
    <property name="java.runtime.name" value="Java(TM) SE Runtime Environment"/>
    <property name="sun.boot.library.path" value="/local/apollo/package/local_1/Linux-2.6c2.5-x86_64/JDK8/JDK8-9616.0-0/jdk1.8/jre/lib/amd64"/>
    <property name="java.vm.version" value="25.131-b11"/>
    <property name="java.vm.vendor" value="Oracle Corporation"/>
    <property name="maven.multiModuleProjectDirectory" value="/local/home/matther/workspace/AmazonPaySkill"/>
    <property name="java.vendor.url" value="http://java.oracle.com/"/>
    <property name="path.separator" value=":"/>
    <property name="guice.disable.misplaced.annotation.check" value="true"/>
    <property name="java.vm.name" value="Java HotSpot(TM) 64-Bit Server VM"/>
    <property name="file.encoding.pkg" value="sun.io"/>
    <property name="user.country" value="US"/>
    <property name="sun.java.launcher" value="SUN_STANDARD"/>
    <property name="sun.os.patch.level" value="unknown"/>
    <property name="java.vm.specification.name" value="Java Virtual Machine Specification"/>
    <property name="user.dir" value="/local/home/matther/workspace/AmazonPaySkill"/>
    <property name="java.runtime.version" value="1.8.0_131-b11"/>
    <property name="java.awt.graphicsenv" value="sun.awt.X11GraphicsEnvironment"/>
    <property name="java.endorsed.dirs" value="/local/apollo/package/local_1/Linux-2.6c2.5-x86_64/JDK8/JDK8-9616.0-0/jdk1.8/jre/lib/endorsed"/>
    <property name="os.arch" value="amd64"/>
    <property name="java.io.tmpdir" value="/tmp"/>
    <property name="line.separator" value="
"/>
    <property name="java.vm.specification.vendor" value="Oracle Corporation"/>
    <property name="os.name" value="Linux"/>
    <property name="classworlds.conf" value="/local/home/matther/workspace/.metadata/.plugins/org.eclipse.m2e.launching/launches/m2conf2737435324510619849.tmp"/>
    <property name="sun.jnu.encoding" value="UTF-8"/>
    <property name="java.library.path" value="/usr/java/packages/lib/amd64:/usr/lib64:/lib64:/lib:/usr/lib"/>
    <property name="java.specification.name" value="Java Platform API Specification"/>
    <property name="java.class.version" value="52.0"/>
    <property name="sun.management.compiler" value="HotSpot 64-Bit Tiered Compilers"/>
    <property name="os.version" value="4.4.20-0.1.fm.237.49.326.metal1.x86_64"/>
    <property name="user.home" value="/home/matther"/>
    <property name="user.timezone" value="Zulu"/>
    <property name="java.awt.printerjob" value="sun.print.PSPrinterJob"/>
    <property name="file.encoding" value="UTF-8"/>
    <property name="java.specification.version" value="1.8"/>
    <property name="user.name" value="matther"/>
    <property name="java.class.path" value="/local/home/matther/eclipse/4.6.1-neon/plugins/org.eclipse.m2e.maven.runtime_1.7.0.20160603-1931/jars/plexus-classworlds-2.5.2.jar"/>
    <property name="java.vm.specification.version" value="1.8"/>
    <property name="sun.arch.data.model" value="64"/>
    <property name="java.home" value="/local/apollo/package/local_1/Linux-2.6c2.5-x86_64/JDK8/JDK8-9616.0-0/jdk1.8/jre"/>
    <property name="sun.java.command" value="org.codehaus.plexus.classworlds.launcher.Launcher -B clean package shade:shade"/>
    <property name="java.specification.vendor" value="Oracle Corporation"/>
    <property name="user.language" value="en"/>
    <property name="awt.toolkit" value="sun.awt.X11.XToolkit"/>
    <property name="java.vm.info" value="mixed mode"/>
    <property name="java.version" value="1.8.0_131"/>
    <property name="java.ext.dirs" value="/local/apollo/package/local_1/Linux-2.6c2.5-x86_64/JDK8/JDK8-9616.0-0/jdk1.8/jre/lib/ext:/usr/java/packages/lib/ext"/>
    <property name="securerandom.source" value="file:/dev/./urandom"/>
    <property name="sun.boot.class.path" value="/local/apollo/package/local_1/Linux-2.6c2.5-x86_64/JDK8/JDK8-9616.0-0/jdk1.8/jre/lib/resources.jar:/local/apollo/package/local_1/Linux-2.6c2.5-x86_64/JDK8/JDK8-9616.0-0/jdk1.8/jre/lib/rt.jar:/local/apollo/package/local_1/Linux-2.6c2.5-x86_64/JDK8/JDK8-9616.0-0/jdk1.8/jre/lib/sunrsasign.jar:/local/apollo/package/local_1/Linux-2.6c2.5-x86_64/JDK8/JDK8-9616.0-0/jdk1.8/jre/lib/jsse.jar:/local/apollo/package/local_1/Linux-2.6c2.5-x86_64/JDK8/JDK8-9616.0-0/jdk1.8/jre/lib/jce.jar:/local/apollo/package/local_1/Linux-2.6c2.5-x86_64/JDK8/JDK8-9616.0-0/jdk1.8/jre/lib/charsets.jar:/local/apollo/package/local_1/Linux-2.6c2.5-x86_64/JDK8/JDK8-9616.0-0/jdk1.8/jre/lib/jfr.jar:/local/apollo/package/local_1/Linux-2.6c2.5-x86_64/JDK8/JDK8-9616.0-0/jdk1.8/jre/classes"/>
    <property name="java.vendor" value="Oracle Corporation"/>
    <property name="maven.home" value="/local/home/matther/workspace/AmazonPaySkill/EMBEDDED"/>
    <property name="file.separator" value="/"/>
    <property name="java.vendor.url.bug" value="http://bugreport.sun.com/bugreport/"/>
    <property name="sun.cpu.endian" value="little"/>
    <property name="sun.io.unicode.encoding" value="UnicodeLittle"/>
    <property name="sun.desktop" value="gnome"/>
    <property name="sun.cpu.isalist" value=""/>
  </properties>
  <testcase classname="AmazonPay.AmazonPaySkill.AppTest" name="testApp" time="0.02"/>
</testsuite>